{
  "pluginsFile": "./cypress/plugins/index.ts",
  "supportFile": "./cypress/support/index.ts",
  "baseUrl": "http://localhost:3009",
  "reporter": "junit",
  "execTimeout": 60000,
  "video": false,
  "trashAssetsBeforeRuns": false,
  "viewportWidth": 1920,
  "viewportHeight": 1080,
  "integrationFolder": "cypress",
  "testFiles": ["./cypress/features/*.feature"],
  "stepDefinitions": "cypress/featuers"
}
